1,Mary,F
2,Anna,F
3,Emma,F
4,Elizabeth,F
5,Minnie,F
6,Margaret,F
7,Ida,F
8,Alice,F
9,Bertha,F
10,Sarah,F
11,Annie,F
12,Clara,F
13,Ella,F
14,Florence,F
15,Cora,F
16,Martha,F
17,Laura,F
18,Nellie,F
19,Grace,F
20,Carrie,F
21,Maude,F
22,Mabel,F
23,Bessie,F
24,Jennie,F
25,Gertrude,F
26,Julia,F
27,Hattie,F
28,Edith,F
29,Mattie,F
30,Rose,F
31,Catherine,F
32,Lillian,F
33,Ada,F
34,Lillie,F
35,Helen,F
36,Jessie,F
37,Louise,F
38,Ethel,F
39,Lula,F
40,Myrtle,F
41,Eva,F
42,Frances,F
43,Lena,F
44,Lucy,F
45,Edna,F
46,Maggie,F
47,Pearl,F
48,Daisy,F
49,Fannie,F
50,Josephine,F
51,Dora,F
52,Rosa,F
53,Katherine,F
54,Agnes,F
55,Marie,F
56,Nora,F
57,May,F
58,Mamie,F
59,Blanche,F
60,Stella,F
61,Ellen,F
62,Nancy,F
63,Effie,F
64,Sallie,F
65,Nettie,F
66,Della,F
67,Lizzie,F
68,Flora,F
69,Susie,F
70,Maud,F
71,Mae,F
72,Etta,F
73,Harriet,F
74,Sadie,F
75,Caroline,F
76,Katie,F
77,Lydia,F
78,Elsie,F
79,Kate,F
80,Susan,F
81,Mollie,F
82,Alma,F
83,Addie,F
84,Georgia,F
85,Eliza,F
86,Lulu,F
87,Nannie,F
88,Lottie,F
89,Amanda,F
90,Belle,F
91,Charlotte,F
92,Rebecca,F
93,Ruth,F
94,Viola,F
95,Olive,F
96,Amelia,F
97,Hannah,F
98,Jane,F
99,Virginia,F
100,Emily,F
101,Matilda,F
102,Irene,F
103,Kathryn,F
104,Esther,F
105,Willie,F
106,Henrietta,F
107,Ollie,F
108,Amy,F
109,Rachel,F
110,Sara,F
111,Estella,F
112,Theresa,F
113,Augusta,F
114,Ora,F
115,Pauline,F
116,Josie,F
117,Lola,F
118,Sophia,F
119,Leona,F
120,Anne,F
121,Mildred,F
122,Ann,F
123,Beulah,F
124,Callie,F
125,Lou,F
126,Delia,F
127,Eleanor,F
128,Barbara,F
129,Iva,F
130,Louisa,F
131,Maria,F
132,Mayme,F
133,Evelyn,F
134,Estelle,F
135,Nina,F
136,Betty,F
137,Marion,F
138,Bettie,F
139,Dorothy,F
140,Luella,F
141,Inez,F
142,Lela,F
143,Rosie,F
144,Allie,F
145,Millie,F
146,Janie,F
147,Cornelia,F
148,Victoria,F
149,Ruby,F
150,Winifred,F
151,Alta,F
152,Celia,F
153,Christine,F
154,Beatrice,F
155,Birdie,F
156,Harriett,F
157,Mable,F
158,Myra,F
159,Sophie,F
160,Tillie,F
161,Isabel,F
162,Sylvia,F
163,Carolyn,F
164,Isabelle,F
165,Leila,F
166,Sally,F
167,Ina,F
168,Essie,F
169,Bertie,F
170,Nell,F
171,Alberta,F
172,Katharine,F
173,Lora,F
174,Rena,F
175,Mina,F
176,Rhoda,F
177,Mathilda,F
178,Abbie,F
179,Eula,F
180,Dollie,F
181,Hettie,F
182,Eunice,F
183,Fanny,F
184,Ola,F
185,Lenora,F
186,Adelaide,F
187,Christina,F
188,Lelia,F
189,Nelle,F
190,Sue,F
191,Johanna,F
192,Lilly,F
193,Lucinda,F
194,Minerva,F
195,Lettie,F
196,Roxie,F
197,Cynthia,F
198,Helena,F
199,Hilda,F
200,Hulda,F
201,Bernice,F
202,Genevieve,F
203,Jean,F
204,Cordelia,F
205,Marian,F
206,Francis,F
207,Jeanette,F
208,Adeline,F
209,Gussie,F
210,Leah,F
211,Lois,F
212,Lura,F
213,Mittie,F
214,Hallie,F
215,Isabella,F
216,Olga,F
217,Phoebe,F
218,Teresa,F
219,Hester,F
220,Lida,F
221,Lina,F
222,Winnie,F
223,Claudia,F
224,Marguerite,F
225,Vera,F
226,Cecelia,F
227,Bess,F
228,Emilie,F
229,John,F
230,Rosetta,F
231,Verna,F
232,Myrtie,F
233,Cecilia,F
234,Elva,F
235,Olivia,F
236,Ophelia,F
237,Georgie,F
238,Elnora,F
239,Violet,F
240,Adele,F
241,Lily,F
242,Linnie,F
243,Loretta,F
244,Madge,F
245,Polly,F
246,Virgie,F
247,Eugenia,F
248,Lucile,F
249,Lucille,F
250,Mabelle,F
251,Rosalie,F
252,Kittie,F
253,Meta,F
254,Angie,F
255,Dessie,F
256,Georgiana,F
257,Lila,F
258,Regina,F
259,Selma,F
260,Wilhelmina,F
261,Bridget,F
262,Lilla,F
263,Malinda,F
264,Vina,F
265,Freda,F
266,Gertie,F
267,Jeannette,F
268,Louella,F
269,Mandy,F
270,Roberta,F
271,Cassie,F
272,Corinne,F
273,Ivy,F
274,Melissa,F
275,Lyda,F
276,Naomi,F
277,Norma,F
278,Bell,F
279,Margie,F
280,Nona,F
281,Zella,F
282,Dovie,F
283,Elvira,F
284,Erma,F
285,Irma,F
286,Leota,F
287,William,F
288,Artie,F
289,Blanch,F
290,Charity,F
291,Lorena,F
292,Lucretia,F
293,Orpha,F
294,Alvina,F
295,Annette,F
296,Catharine,F
297,Elma,F
298,Geneva,F
299,Janet,F
300,Lee,F
301,Leora,F
302,Lona,F
303,Miriam,F
304,Zora,F
305,Linda,F
306,Octavia,F
307,Sudie,F
308,Zula,F
309,Adella,F
310,Alpha,F
311,Frieda,F
312,George,F
313,Joanna,F
314,Leonora,F
315,Priscilla,F
316,Tennie,F
317,Angeline,F
318,Docia,F
319,Ettie,F
320,Flossie,F
321,Hanna,F
322,Letha,F
323,Minta,F
324,Retta,F
325,Rosella,F
326,Adah,F
327,Berta,F
328,Elisabeth,F
329,Elise,F
330,Goldie,F
331,Leola,F
332,Margret,F
333,Adaline,F
334,Floy,F
335,Idella,F
336,Juanita,F
337,Lenna,F
338,Lucie,F
339,Missouri,F
340,Nola,F
341,Zoe,F
342,Eda,F
343,Isabell,F
344,James,F
345,Julie,F
346,Letitia,F
347,Madeline,F
348,Malissa,F
349,Mariah,F
350,Pattie,F
351,Vivian,F
352,Almeda,F
353,Aurelia,F
354,Claire,F
355,Dolly,F
356,Hazel,F
357,Jannie,F
358,Kathleen,F
359,Kathrine,F
360,Lavinia,F
361,Marietta,F
362,Melvina,F
363,Ona,F
364,Pinkie,F
365,Samantha,F
366,Susanna,F
367,Chloe,F
368,Donnie,F
369,Elsa,F
370,Gladys,F
371,Matie,F
372,Pearle,F
373,Vesta,F
374,Vinnie,F
375,Antoinette,F
376,Clementine,F
377,Edythe,F
378,Harriette,F
379,Libbie,F
380,Lilian,F
381,Lue,F
382,Lutie,F
383,Magdalena,F
384,Meda,F
385,Rita,F
386,Tena,F
387,Zelma,F
388,Adelia,F
389,Annetta,F
390,Antonia,F
391,Dona,F
392,Elizebeth,F
393,Georgianna,F
394,Gracie,F
395,Iona,F
396,Lessie,F
397,Leta,F
398,Liza,F
399,Mertie,F
400,Molly,F
401,Neva,F
402,Oma,F
403,Alida,F
404,Alva,F
405,Cecile,F
406,Cleo,F
407,Donna,F
408,Ellie,F
409,Ernestine,F
410,Evie,F
411,Frankie,F
412,Helene,F
413,Minna,F
414,Myrta,F
415,Prudence,F
416,Queen,F
417,Rilla,F
418,Savannah,F
419,Tessie,F
420,Tina,F
421,Agatha,F
422,America,F
423,Anita,F
424,Arminta,F
425,Dorothea,F
426,Ira,F
427,Luvenia,F
428,Marjorie,F
429,Maybelle,F
430,Mellie,F
431,Nan,F
432,Pearlie,F
433,Sidney,F
434,Velma,F
435,Clare,F
436,Constance,F
437,Dixie,F
438,Ila,F
439,Iola,F
440,Jimmie,F
441,Louvenia,F
442,Lucia,F
443,Ludie,F
444,Luna,F
445,Metta,F
446,Patsy,F
447,Phebe,F
448,Sophronia,F
449,Adda,F
450,Avis,F
451,Betsy,F
452,Bonnie,F
453,Cecil,F
454,Cordie,F
455,Emmaline,F
456,Ethelyn,F
457,Hortense,F
458,June,F
459,Louie,F
460,Lovie,F
461,Marcella,F
462,Melinda,F
463,Mona,F
464,Odessa,F
465,Veronica,F
466,Aimee,F
467,Annabel,F
468,Ava,F
469,Bella,F
470,Carolina,F
471,Cathrine,F
472,Christena,F
473,Clyde,F
474,Dena,F
475,Dolores,F
476,Eleanore,F
477,Elmira,F
478,Fay,F
479,Frank,F
480,Jenny,F
481,Kizzie,F
482,Lonnie,F
483,Loula,F
484,Magdalene,F
485,Mettie,F
486,Mintie,F
487,Peggy,F
488,Reba,F
489,Serena,F
490,Vida,F
491,Zada,F
492,Abigail,F
493,Celestine,F
494,Celina,F
495,Claudie,F
496,Clemmie,F
497,Connie,F
498,Daisie,F
499,Deborah,F
500,Dessa,F
501,Easter,F
502,Eddie,F
503,Emelia,F
504,Emmie,F
505,Imogene,F
506,India,F
507,Jeanne,F
508,Joan,F
509,Lenore,F
510,Liddie,F
511,Lotta,F
512,Mame,F
513,Nevada,F
514,Rachael,F
515,Sina,F
516,Willa,F
517,Aline,F
518,Beryl,F
519,Charles,F
520,Daisey,F
521,Dorcas,F
522,Edmonia,F
523,Effa,F
524,Eldora,F
525,Eloise,F
526,Emmer,F
527,Era,F
528,Gena,F
529,Henry,F
530,Iris,F
531,Izora,F
532,Lennie,F
533,Lissie,F
534,Mallie,F
535,Malvina,F
536,Mathilde,F
537,Mazie,F
538,Queenie,F
539,Robert,F
540,Rosina,F
541,Salome,F
542,Theodora,F
543,Therese,F
544,Vena,F
545,Wanda,F
546,Wilda,F
547,Altha,F
548,Anastasia,F
549,Besse,F
550,Bird,F
551,Birtie,F
552,Clarissa,F
553,Claude,F
554,Delilah,F
555,Diana,F
556,Emelie,F
557,Erna,F
558,Fern,F
559,Florida,F
560,Frona,F
561,Hilma,F
562,Joseph,F
563,Juliet,F
564,Leonie,F
565,Lugenia,F
566,Mammie,F
567,Manda,F
568,Manerva,F
569,Manie,F
570,Nella,F
571,Paulina,F
572,Philomena,F
573,Rae,F
574,Selina,F
575,Sena,F
576,Theodosia,F
577,Tommie,F
578,Una,F
579,Vernie,F
580,Adela,F
581,Althea,F
582,Amalia,F
583,Amber,F
584,Angelina,F
585,Annabelle,F
586,Anner,F
587,Arie,F
588,Clarice,F
589,Corda,F
590,Corrie,F
591,Dell,F
592,Dellar,F
593,Donie,F
594,Doris,F
595,Elda,F
596,Elinor,F
597,Emeline,F
598,Emilia,F
599,Esta,F
600,Estell,F
601,Etha,F
602,Fred,F
603,Hope,F
604,Indiana,F
605,Ione,F
606,Jettie,F
607,Johnnie,F
608,Josiephine,F
609,Kitty,F
610,Lavina,F
611,Leda,F
612,Letta,F
613,Mahala,F
614,Marcia,F
615,Margarette,F
616,Maudie,F
617,Maye,F
618,Norah,F
619,Oda,F
620,Patty,F
621,Paula,F
622,Permelia,F
623,Rosalia,F
624,Roxanna,F
625,Sula,F
626,Vada,F
627,Winnifred,F
628,Adline,F
629,Almira,F
630,Alvena,F
631,Arizona,F
632,Becky,F
633,Bennie,F
634,Bernadette,F
635,Camille,F
636,Cordia,F
637,Corine,F
638,Dicie,F
639,Dove,F
640,Drusilla,F
641,Elena,F
642,Elenora,F
643,Elmina,F
644,Ethyl,F
645,Evalyn,F
646,Evelina,F
647,Faye,F
648,Huldah,F
649,Idell,F
650,Inga,F
651,Irena,F
652,Jewell,F
653,Kattie,F
654,Lavenia,F
655,Leslie,F
656,Lovina,F
657,Lulie,F
658,Magnolia,F
659,Margeret,F
660,Margery,F
661,Media,F
662,Millicent,F
663,Nena,F
664,Ocie,F
665,Orilla,F
666,Osie,F
667,Pansy,F
668,Ray,F
669,Rosia,F
670,Rowena,F
671,Shirley,F
672,Tabitha,F
673,Thomas,F
674,Verdie,F
675,Walter,F
676,Zetta,F
677,Zoa,F
678,Zona,F
679,Albertina,F
680,Albina,F
681,Alyce,F
682,Amie,F
683,Angela,F
684,Annis,F
685,Carol,F
686,Carra,F
687,Clarence,F
688,Clarinda,F
689,Delphia,F
690,Dillie,F
691,Doshie,F
692,Drucilla,F
693,Etna,F
694,Eugenie,F
695,Eulalia,F
696,Eve,F
697,Felicia,F
698,Florance,F
699,Fronie,F
700,Geraldine,F
701,Gina,F
702,Glenna,F
703,Grayce,F
704,Hedwig,F
705,Jessica,F
706,Jossie,F
707,Katheryn,F
708,Katy,F
709,Lea,F
710,Leanna,F
711,Leitha,F
712,Leone,F
713,Lidie,F
714,Loma,F
715,Lular,F
716,Magdalen,F
717,Maymie,F
718,Minervia,F
719,Muriel,F
720,Neppie,F
721,Olie,F
722,Onie,F
723,Osa,F
724,Otelia,F
725,Paralee,F
726,Patience,F
727,Rella,F
728,Rillie,F
729,Rosanna,F
730,Theo,F
731,Tilda,F
732,Tishie,F
733,Tressa,F
734,Viva,F
735,Yetta,F
736,Zena,F
737,Zola,F
738,Abby,F
739,Aileen,F
740,Alba,F
741,Alda,F
742,Alla,F
743,Alverta,F
744,Ara,F
745,Ardelia,F
746,Ardella,F
747,Arrie,F
748,Arvilla,F
749,Augustine,F
750,Aurora,F
751,Bama,F
752,Bena,F
753,Byrd,F
754,Calla,F
755,Camilla,F
756,Carey,F
757,Carlotta,F
758,Celestia,F
759,Cherry,F
760,Cinda,F
761,Classie,F
762,Claudine,F
763,Clemie,F
764,Clifford,F
765,Clyda,F
766,Creola,F
767,Debbie,F
768,Dee,F
769,Dinah,F
770,Doshia,F
771,Ednah,F
772,Edyth,F
773,Eleanora,F
774,Electa,F
775,Eola,F
776,Erie,F
777,Eudora,F
778,Euphemia,F
779,Evalena,F
780,Evaline,F
781,Faith,F
782,Fidelia,F
783,Freddie,F
784,Golda,F
785,Harry,F
786,Helma,F
787,Hermine,F
788,Hessie,F
789,Ivah,F
790,Janette,F
791,Jennette,F
792,Joella,F
793,Kathryne,F
794,Lacy,F
795,Lanie,F
796,Lauretta,F
797,Leana,F
798,Leatha,F
799,Leo,F
800,Liller,F
801,Lillis,F
802,Louetta,F
803,Madie,F
804,Mai,F
805,Martina,F
806,Maryann,F
807,Melva,F
808,Mena,F
809,Mercedes,F
810,Merle,F
811,Mima,F
812,Minda,F
813,Monica,F
814,Nealie,F
815,Netta,F
816,Nolia,F
817,Nonie,F
818,Odelia,F
819,Ottilie,F
820,Phyllis,F
821,Robbie,F
822,Sabina,F
823,Sada,F
824,Sammie,F
825,Suzanne,F
826,Sybilla,F
827,Thea,F
828,Tressie,F
829,Vallie,F
830,Venie,F
831,Viney,F
832,Wilhelmine,F
833,Winona,F
834,Zelda,F
835,Zilpha,F
836,Adelle,F
837,Adina,F
838,Adrienne,F
839,Albertine,F
840,Alys,F
841,Ana,F
842,Araminta,F
843,Arthur,F
844,Birtha,F
845,Bulah,F
846,Caddie,F
847,Celie,F
848,Charlotta,F
849,Clair,F
850,Concepcion,F
851,Cordella,F
852,Corrine,F
853,Delila,F
854,Delphine,F
855,Dosha,F
856,Edgar,F
857,Elaine,F
858,Elisa,F
859,Ellar,F
860,Elmire,F
861,Elvina,F
862,Ena,F
863,Estie,F
864,Etter,F
865,Fronnie,F
866,Genie,F
867,Georgina,F
868,Glenn,F
869,Gracia,F
870,Guadalupe,F
871,Gwendolyn,F
872,Hassie,F
873,Honora,F
874,Icy,F
875,Isa,F
876,Isadora,F
877,Jesse,F
878,Jewel,F
879,Joe,F
880,Johannah,F
881,Juana,F
882,Judith,F
883,Judy,F
884,Junie,F
885,Lavonia,F
886,Lella,F
887,Lemma,F
888,Letty,F
889,Linna,F
890,Littie,F
891,Lollie,F
892,Lorene,F
893,Louis,F
894,Love,F
895,Lovisa,F
896,Lucina,F
897,Lynn,F
898,Madora,F
899,Mahalia,F
900,Manervia,F
901,Manuela,F
902,Margarett,F
903,Margaretta,F
904,Margarita,F
905,Marilla,F
906,Mignon,F
907,Mozella,F
908,Natalie,F
909,Nelia,F
910,Nolie,F
911,Omie,F
912,Opal,F
913,Ossie,F
914,Ottie,F
915,Ottilia,F
916,Parthenia,F
917,Penelope,F
918,Pinkey,F
919,Pollie,F
920,Rennie,F
921,Reta,F
922,Roena,F
923,Rosalee,F
924,Roseanna,F
925,Ruthie,F
926,Sabra,F
927,Sannie,F
928,Selena,F
929,Sibyl,F
930,Tella,F
931,Tempie,F
932,Tennessee,F
933,Teressa,F
934,Texas,F
935,Theda,F
936,Thelma,F
937,Thursa,F
938,Ula,F
939,Vannie,F
940,Verona,F
941,Vertie,F
942,Wilma,F
943,John,M
944,William,M
945,James,M
946,Charles,M
947,George,M
948,Frank,M
949,Joseph,M
950,Thomas,M
951,Henry,M
952,Robert,M
953,Edward,M
954,Harry,M
955,Walter,M
956,Arthur,M
957,Fred,M
958,Albert,M
959,Samuel,M
960,David,M
961,Louis,M
962,Joe,M
963,Charlie,M
964,Clarence,M
965,Richard,M
966,Andrew,M
967,Daniel,M
968,Ernest,M
969,Will,M
970,Jesse,M
971,Oscar,M
972,Lewis,M
973,Peter,M
974,Benjamin,M
975,Frederick,M
976,Willie,M
977,Alfred,M
978,Sam,M
979,Roy,M
980,Herbert,M
981,Jacob,M
982,Tom,M
983,Elmer,M
984,Carl,M
985,Lee,M
986,Howard,M
987,Martin,M
988,Michael,M
989,Bert,M
990,Herman,M
991,Jim,M
992,Francis,M
993,Harvey,M
994,Earl,M
995,Eugene,M
996,Ralph,M
997,Ed,M
998,Claude,M
999,Edwin,M
1000,Ben,M
